http://s3.amazonaws.com/tier1-p215-50/L339796_SB000_uv.dppp.MS.tar
http://s3.amazonaws.com/tier1-p215-50/L339796_SB001_uv.dppp.MS.tar
http://s3.amazonaws.com/tier1-p215-50/L339796_SB002_uv.dppp.MS.tar
http://s3.amazonaws.com/tier1-p215-50/L339796_SB003_uv.dppp.MS.tar
http://s3.amazonaws.com/tier1-p215-50/L339796_SB004_uv.dppp.MS.tar
http://s3.amazonaws.com/tier1-p215-50/L339796_SB005_uv.dppp.MS.tar
http://s3.amazonaws.com/tier1-p215-50/L339796_SB006_uv.dppp.MS.tar
http://s3.amazonaws.com/tier1-p215-50/L339796_SB007_uv.dppp.MS.tar
http://s3.amazonaws.com/tier1-p215-50/L339796_SB008_uv.dppp.MS.tar
http://s3.amazonaws.com/tier1-p215-50/L339796_SB009_uv.dppp.MS.tar
http://s3.amazonaws.com/tier1-p215-50/L339796_SB010_uv.dppp.MS.tar
http://s3.amazonaws.com/tier1-p215-50/L339796_SB011_uv.dppp.MS.tar
http://s3.amazonaws.com/tier1-p215-50/L339796_SB012_uv.dppp.MS.tar
http://s3.amazonaws.com/tier1-p215-50/L339796_SB013_uv.dppp.MS.tar
http://s3.amazonaws.com/tier1-p215-50/L339796_SB014_uv.dppp.MS.tar
http://s3.amazonaws.com/tier1-p215-50/L339796_SB015_uv.dppp.MS.tar
http://s3.amazonaws.com/tier1-p215-50/L339796_SB016_uv.dppp.MS.tar
http://s3.amazonaws.com/tier1-p215-50/L339796_SB017_uv.dppp.MS.tar
http://s3.amazonaws.com/tier1-p215-50/L339796_SB018_uv.dppp.MS.tar
http://s3.amazonaws.com/tier1-p215-50/L339796_SB019_uv.dppp.MS.tar
http://s3.amazonaws.com/tier1-p215-50/L339796_SB020_uv.dppp.MS.tar
http://s3.amazonaws.com/tier1-p215-50/L339796_SB021_uv.dppp.MS.tar
http://s3.amazonaws.com/tier1-p215-50/L339796_SB022_uv.dppp.MS.tar
http://s3.amazonaws.com/tier1-p215-50/L339796_SB023_uv.dppp.MS.tar
http://s3.amazonaws.com/tier1-p215-50/L339796_SB024_uv.dppp.MS.tar
http://s3.amazonaws.com/tier1-p215-50/L339796_SB025_uv.dppp.MS.tar
http://s3.amazonaws.com/tier1-p215-50/L339796_SB026_uv.dppp.MS.tar
http://s3.amazonaws.com/tier1-p215-50/L339796_SB027_uv.dppp.MS.tar
http://s3.amazonaws.com/tier1-p215-50/L339796_SB028_uv.dppp.MS.tar
http://s3.amazonaws.com/tier1-p215-50/L339796_SB029_uv.dppp.MS.tar
http://s3.amazonaws.com/tier1-p215-50/L339796_SB030_uv.dppp.MS.tar
http://s3.amazonaws.com/tier1-p215-50/L339796_SB031_uv.dppp.MS.tar
http://s3.amazonaws.com/tier1-p215-50/L339796_SB032_uv.dppp.MS.tar
http://s3.amazonaws.com/tier1-p215-50/L339796_SB033_uv.dppp.MS.tar
http://s3.amazonaws.com/tier1-p215-50/L339796_SB034_uv.dppp.MS.tar
http://s3.amazonaws.com/tier1-p215-50/L339796_SB035_uv.dppp.MS.tar
http://s3.amazonaws.com/tier1-p215-50/L339796_SB036_uv.dppp.MS.tar
http://s3.amazonaws.com/tier1-p215-50/L339796_SB037_uv.dppp.MS.tar
http://s3.amazonaws.com/tier1-p215-50/L339796_SB038_uv.dppp.MS.tar
http://s3.amazonaws.com/tier1-p215-50/L339796_SB039_uv.dppp.MS.tar
http://s3.amazonaws.com/tier1-p215-50/L339796_SB040_uv.dppp.MS.tar
http://s3.amazonaws.com/tier1-p215-50/L339796_SB041_uv.dppp.MS.tar
http://s3.amazonaws.com/tier1-p215-50/L339796_SB042_uv.dppp.MS.tar
http://s3.amazonaws.com/tier1-p215-50/L339796_SB043_uv.dppp.MS.tar
http://s3.amazonaws.com/tier1-p215-50/L339796_SB044_uv.dppp.MS.tar
http://s3.amazonaws.com/tier1-p215-50/L339796_SB045_uv.dppp.MS.tar
http://s3.amazonaws.com/tier1-p215-50/L339796_SB046_uv.dppp.MS.tar
http://s3.amazonaws.com/tier1-p215-50/L339796_SB047_uv.dppp.MS.tar
http://s3.amazonaws.com/tier1-p215-50/L339796_SB048_uv.dppp.MS.tar
http://s3.amazonaws.com/tier1-p215-50/L339796_SB049_uv.dppp.MS.tar
http://s3.amazonaws.com/tier1-p215-50/L339796_SB050_uv.dppp.MS.tar
http://s3.amazonaws.com/tier1-p215-50/L339796_SB051_uv.dppp.MS.tar
http://s3.amazonaws.com/tier1-p215-50/L339796_SB052_uv.dppp.MS.tar
http://s3.amazonaws.com/tier1-p215-50/L339796_SB053_uv.dppp.MS.tar
http://s3.amazonaws.com/tier1-p215-50/L339796_SB054_uv.dppp.MS.tar
http://s3.amazonaws.com/tier1-p215-50/L339796_SB055_uv.dppp.MS.tar
http://s3.amazonaws.com/tier1-p215-50/L339796_SB056_uv.dppp.MS.tar
http://s3.amazonaws.com/tier1-p215-50/L339796_SB057_uv.dppp.MS.tar
http://s3.amazonaws.com/tier1-p215-50/L339796_SB058_uv.dppp.MS.tar
http://s3.amazonaws.com/tier1-p215-50/L339796_SB059_uv.dppp.MS.tar
http://s3.amazonaws.com/tier1-p215-50/L339796_SB060_uv.dppp.MS.tar
http://s3.amazonaws.com/tier1-p215-50/L339796_SB061_uv.dppp.MS.tar
http://s3.amazonaws.com/tier1-p215-50/L339796_SB062_uv.dppp.MS.tar
http://s3.amazonaws.com/tier1-p215-50/L339796_SB063_uv.dppp.MS.tar
http://s3.amazonaws.com/tier1-p215-50/L339796_SB064_uv.dppp.MS.tar
http://s3.amazonaws.com/tier1-p215-50/L339796_SB065_uv.dppp.MS.tar
http://s3.amazonaws.com/tier1-p215-50/L339796_SB066_uv.dppp.MS.tar
http://s3.amazonaws.com/tier1-p215-50/L339796_SB067_uv.dppp.MS.tar
http://s3.amazonaws.com/tier1-p215-50/L339796_SB068_uv.dppp.MS.tar
http://s3.amazonaws.com/tier1-p215-50/L339796_SB069_uv.dppp.MS.tar
http://s3.amazonaws.com/tier1-p215-50/L339796_SB070_uv.dppp.MS.tar
http://s3.amazonaws.com/tier1-p215-50/L339796_SB071_uv.dppp.MS.tar
http://s3.amazonaws.com/tier1-p215-50/L339796_SB072_uv.dppp.MS.tar
http://s3.amazonaws.com/tier1-p215-50/L339796_SB073_uv.dppp.MS.tar
http://s3.amazonaws.com/tier1-p215-50/L339796_SB074_uv.dppp.MS.tar
http://s3.amazonaws.com/tier1-p215-50/L339796_SB075_uv.dppp.MS.tar
http://s3.amazonaws.com/tier1-p215-50/L339796_SB076_uv.dppp.MS.tar
http://s3.amazonaws.com/tier1-p215-50/L339796_SB077_uv.dppp.MS.tar
http://s3.amazonaws.com/tier1-p215-50/L339796_SB078_uv.dppp.MS.tar
http://s3.amazonaws.com/tier1-p215-50/L339796_SB079_uv.dppp.MS.tar
http://s3.amazonaws.com/tier1-p215-50/L339796_SB080_uv.dppp.MS.tar
http://s3.amazonaws.com/tier1-p215-50/L339796_SB081_uv.dppp.MS.tar
http://s3.amazonaws.com/tier1-p215-50/L339796_SB082_uv.dppp.MS.tar
http://s3.amazonaws.com/tier1-p215-50/L339796_SB083_uv.dppp.MS.tar
http://s3.amazonaws.com/tier1-p215-50/L339796_SB084_uv.dppp.MS.tar
http://s3.amazonaws.com/tier1-p215-50/L339796_SB085_uv.dppp.MS.tar
http://s3.amazonaws.com/tier1-p215-50/L339796_SB086_uv.dppp.MS.tar
http://s3.amazonaws.com/tier1-p215-50/L339796_SB087_uv.dppp.MS.tar
http://s3.amazonaws.com/tier1-p215-50/L339796_SB088_uv.dppp.MS.tar
http://s3.amazonaws.com/tier1-p215-50/L339796_SB089_uv.dppp.MS.tar
http://s3.amazonaws.com/tier1-p215-50/L339796_SB090_uv.dppp.MS.tar
http://s3.amazonaws.com/tier1-p215-50/L339796_SB091_uv.dppp.MS.tar
http://s3.amazonaws.com/tier1-p215-50/L339796_SB092_uv.dppp.MS.tar
http://s3.amazonaws.com/tier1-p215-50/L339796_SB093_uv.dppp.MS.tar
http://s3.amazonaws.com/tier1-p215-50/L339796_SB094_uv.dppp.MS.tar
http://s3.amazonaws.com/tier1-p215-50/L339796_SB095_uv.dppp.MS.tar
http://s3.amazonaws.com/tier1-p215-50/L339796_SB096_uv.dppp.MS.tar
http://s3.amazonaws.com/tier1-p215-50/L339796_SB097_uv.dppp.MS.tar
http://s3.amazonaws.com/tier1-p215-50/L339796_SB098_uv.dppp.MS.tar
http://s3.amazonaws.com/tier1-p215-50/L339796_SB099_uv.dppp.MS.tar
http://s3.amazonaws.com/tier1-p215-50/L339796_SB100_uv.dppp.MS.tar
http://s3.amazonaws.com/tier1-p215-50/L339796_SB101_uv.dppp.MS.tar
http://s3.amazonaws.com/tier1-p215-50/L339796_SB102_uv.dppp.MS.tar
http://s3.amazonaws.com/tier1-p215-50/L339796_SB103_uv.dppp.MS.tar
http://s3.amazonaws.com/tier1-p215-50/L339796_SB104_uv.dppp.MS.tar
http://s3.amazonaws.com/tier1-p215-50/L339796_SB105_uv.dppp.MS.tar
http://s3.amazonaws.com/tier1-p215-50/L339796_SB106_uv.dppp.MS.tar
http://s3.amazonaws.com/tier1-p215-50/L339796_SB107_uv.dppp.MS.tar
http://s3.amazonaws.com/tier1-p215-50/L339796_SB108_uv.dppp.MS.tar
http://s3.amazonaws.com/tier1-p215-50/L339796_SB109_uv.dppp.MS.tar
http://s3.amazonaws.com/tier1-p215-50/L339796_SB110_uv.dppp.MS.tar
http://s3.amazonaws.com/tier1-p215-50/L339796_SB111_uv.dppp.MS.tar
http://s3.amazonaws.com/tier1-p215-50/L339796_SB112_uv.dppp.MS.tar
http://s3.amazonaws.com/tier1-p215-50/L339796_SB113_uv.dppp.MS.tar
http://s3.amazonaws.com/tier1-p215-50/L339796_SB114_uv.dppp.MS.tar
http://s3.amazonaws.com/tier1-p215-50/L339796_SB115_uv.dppp.MS.tar
http://s3.amazonaws.com/tier1-p215-50/L339796_SB116_uv.dppp.MS.tar
http://s3.amazonaws.com/tier1-p215-50/L339796_SB117_uv.dppp.MS.tar
http://s3.amazonaws.com/tier1-p215-50/L339796_SB118_uv.dppp.MS.tar
http://s3.amazonaws.com/tier1-p215-50/L339796_SB119_uv.dppp.MS.tar
http://s3.amazonaws.com/tier1-p215-50/L339796_SB120_uv.dppp.MS.tar
http://s3.amazonaws.com/tier1-p215-50/L339796_SB121_uv.dppp.MS.tar
http://s3.amazonaws.com/tier1-p215-50/L339796_SB122_uv.dppp.MS.tar
http://s3.amazonaws.com/tier1-p215-50/L339796_SB123_uv.dppp.MS.tar
http://s3.amazonaws.com/tier1-p215-50/L339796_SB124_uv.dppp.MS.tar
http://s3.amazonaws.com/tier1-p215-50/L339796_SB125_uv.dppp.MS.tar
http://s3.amazonaws.com/tier1-p215-50/L339796_SB126_uv.dppp.MS.tar
http://s3.amazonaws.com/tier1-p215-50/L339796_SB127_uv.dppp.MS.tar
http://s3.amazonaws.com/tier1-p215-50/L339796_SB128_uv.dppp.MS.tar
http://s3.amazonaws.com/tier1-p215-50/L339796_SB129_uv.dppp.MS.tar
http://s3.amazonaws.com/tier1-p215-50/L339796_SB130_uv.dppp.MS.tar
http://s3.amazonaws.com/tier1-p215-50/L339796_SB131_uv.dppp.MS.tar
http://s3.amazonaws.com/tier1-p215-50/L339796_SB132_uv.dppp.MS.tar
http://s3.amazonaws.com/tier1-p215-50/L339796_SB133_uv.dppp.MS.tar
http://s3.amazonaws.com/tier1-p215-50/L339796_SB134_uv.dppp.MS.tar
http://s3.amazonaws.com/tier1-p215-50/L339796_SB135_uv.dppp.MS.tar
http://s3.amazonaws.com/tier1-p215-50/L339796_SB136_uv.dppp.MS.tar
http://s3.amazonaws.com/tier1-p215-50/L339796_SB137_uv.dppp.MS.tar
http://s3.amazonaws.com/tier1-p215-50/L339796_SB138_uv.dppp.MS.tar
http://s3.amazonaws.com/tier1-p215-50/L339796_SB139_uv.dppp.MS.tar
http://s3.amazonaws.com/tier1-p215-50/L339796_SB140_uv.dppp.MS.tar
http://s3.amazonaws.com/tier1-p215-50/L339796_SB141_uv.dppp.MS.tar
http://s3.amazonaws.com/tier1-p215-50/L339796_SB142_uv.dppp.MS.tar
http://s3.amazonaws.com/tier1-p215-50/L339796_SB143_uv.dppp.MS.tar
http://s3.amazonaws.com/tier1-p215-50/L339796_SB144_uv.dppp.MS.tar
http://s3.amazonaws.com/tier1-p215-50/L339796_SB145_uv.dppp.MS.tar
http://s3.amazonaws.com/tier1-p215-50/L339796_SB146_uv.dppp.MS.tar
http://s3.amazonaws.com/tier1-p215-50/L339796_SB147_uv.dppp.MS.tar
http://s3.amazonaws.com/tier1-p215-50/L339796_SB148_uv.dppp.MS.tar
http://s3.amazonaws.com/tier1-p215-50/L339796_SB149_uv.dppp.MS.tar
http://s3.amazonaws.com/tier1-p215-50/L339796_SB150_uv.dppp.MS.tar
http://s3.amazonaws.com/tier1-p215-50/L339796_SB151_uv.dppp.MS.tar
http://s3.amazonaws.com/tier1-p215-50/L339796_SB152_uv.dppp.MS.tar
http://s3.amazonaws.com/tier1-p215-50/L339796_SB153_uv.dppp.MS.tar
http://s3.amazonaws.com/tier1-p215-50/L339796_SB154_uv.dppp.MS.tar
http://s3.amazonaws.com/tier1-p215-50/L339796_SB155_uv.dppp.MS.tar
http://s3.amazonaws.com/tier1-p215-50/L339796_SB156_uv.dppp.MS.tar
http://s3.amazonaws.com/tier1-p215-50/L339796_SB157_uv.dppp.MS.tar
http://s3.amazonaws.com/tier1-p215-50/L339796_SB158_uv.dppp.MS.tar
http://s3.amazonaws.com/tier1-p215-50/L339796_SB159_uv.dppp.MS.tar
http://s3.amazonaws.com/tier1-p215-50/L339796_SB160_uv.dppp.MS.tar
http://s3.amazonaws.com/tier1-p215-50/L339796_SB161_uv.dppp.MS.tar
http://s3.amazonaws.com/tier1-p215-50/L339796_SB162_uv.dppp.MS.tar
http://s3.amazonaws.com/tier1-p215-50/L339796_SB163_uv.dppp.MS.tar
http://s3.amazonaws.com/tier1-p215-50/L339796_SB164_uv.dppp.MS.tar
http://s3.amazonaws.com/tier1-p215-50/L339796_SB165_uv.dppp.MS.tar
http://s3.amazonaws.com/tier1-p215-50/L339796_SB166_uv.dppp.MS.tar
http://s3.amazonaws.com/tier1-p215-50/L339796_SB167_uv.dppp.MS.tar
http://s3.amazonaws.com/tier1-p215-50/L339796_SB168_uv.dppp.MS.tar
http://s3.amazonaws.com/tier1-p215-50/L339796_SB169_uv.dppp.MS.tar
http://s3.amazonaws.com/tier1-p215-50/L339796_SB170_uv.dppp.MS.tar
http://s3.amazonaws.com/tier1-p215-50/L339796_SB171_uv.dppp.MS.tar
http://s3.amazonaws.com/tier1-p215-50/L339796_SB172_uv.dppp.MS.tar
http://s3.amazonaws.com/tier1-p215-50/L339796_SB173_uv.dppp.MS.tar
http://s3.amazonaws.com/tier1-p215-50/L339796_SB174_uv.dppp.MS.tar
http://s3.amazonaws.com/tier1-p215-50/L339796_SB175_uv.dppp.MS.tar
http://s3.amazonaws.com/tier1-p215-50/L339796_SB176_uv.dppp.MS.tar
http://s3.amazonaws.com/tier1-p215-50/L339796_SB177_uv.dppp.MS.tar
http://s3.amazonaws.com/tier1-p215-50/L339796_SB178_uv.dppp.MS.tar
http://s3.amazonaws.com/tier1-p215-50/L339796_SB179_uv.dppp.MS.tar
http://s3.amazonaws.com/tier1-p215-50/L339796_SB180_uv.dppp.MS.tar
http://s3.amazonaws.com/tier1-p215-50/L339796_SB181_uv.dppp.MS.tar
http://s3.amazonaws.com/tier1-p215-50/L339796_SB182_uv.dppp.MS.tar
http://s3.amazonaws.com/tier1-p215-50/L339796_SB183_uv.dppp.MS.tar
http://s3.amazonaws.com/tier1-p215-50/L339796_SB184_uv.dppp.MS.tar
http://s3.amazonaws.com/tier1-p215-50/L339796_SB185_uv.dppp.MS.tar
http://s3.amazonaws.com/tier1-p215-50/L339796_SB186_uv.dppp.MS.tar
http://s3.amazonaws.com/tier1-p215-50/L339796_SB187_uv.dppp.MS.tar
http://s3.amazonaws.com/tier1-p215-50/L339796_SB188_uv.dppp.MS.tar
http://s3.amazonaws.com/tier1-p215-50/L339796_SB189_uv.dppp.MS.tar
http://s3.amazonaws.com/tier1-p215-50/L339796_SB190_uv.dppp.MS.tar
http://s3.amazonaws.com/tier1-p215-50/L339796_SB191_uv.dppp.MS.tar
http://s3.amazonaws.com/tier1-p215-50/L339796_SB192_uv.dppp.MS.tar
http://s3.amazonaws.com/tier1-p215-50/L339796_SB193_uv.dppp.MS.tar
http://s3.amazonaws.com/tier1-p215-50/L339796_SB194_uv.dppp.MS.tar
http://s3.amazonaws.com/tier1-p215-50/L339796_SB195_uv.dppp.MS.tar
http://s3.amazonaws.com/tier1-p215-50/L339796_SB196_uv.dppp.MS.tar
http://s3.amazonaws.com/tier1-p215-50/L339796_SB197_uv.dppp.MS.tar
http://s3.amazonaws.com/tier1-p215-50/L339796_SB198_uv.dppp.MS.tar
http://s3.amazonaws.com/tier1-p215-50/L339796_SB199_uv.dppp.MS.tar
http://s3.amazonaws.com/tier1-p215-50/L339796_SB200_uv.dppp.MS.tar
http://s3.amazonaws.com/tier1-p215-50/L339796_SB201_uv.dppp.MS.tar
http://s3.amazonaws.com/tier1-p215-50/L339796_SB202_uv.dppp.MS.tar
http://s3.amazonaws.com/tier1-p215-50/L339796_SB203_uv.dppp.MS.tar
http://s3.amazonaws.com/tier1-p215-50/L339796_SB204_uv.dppp.MS.tar
http://s3.amazonaws.com/tier1-p215-50/L339796_SB205_uv.dppp.MS.tar
http://s3.amazonaws.com/tier1-p215-50/L339796_SB206_uv.dppp.MS.tar
http://s3.amazonaws.com/tier1-p215-50/L339796_SB207_uv.dppp.MS.tar
http://s3.amazonaws.com/tier1-p215-50/L339796_SB208_uv.dppp.MS.tar
http://s3.amazonaws.com/tier1-p215-50/L339796_SB209_uv.dppp.MS.tar
http://s3.amazonaws.com/tier1-p215-50/L339796_SB210_uv.dppp.MS.tar
http://s3.amazonaws.com/tier1-p215-50/L339796_SB211_uv.dppp.MS.tar
http://s3.amazonaws.com/tier1-p215-50/L339796_SB212_uv.dppp.MS.tar
http://s3.amazonaws.com/tier1-p215-50/L339796_SB213_uv.dppp.MS.tar
http://s3.amazonaws.com/tier1-p215-50/L339796_SB214_uv.dppp.MS.tar
http://s3.amazonaws.com/tier1-p215-50/L339796_SB215_uv.dppp.MS.tar
http://s3.amazonaws.com/tier1-p215-50/L339796_SB216_uv.dppp.MS.tar
http://s3.amazonaws.com/tier1-p215-50/L339796_SB217_uv.dppp.MS.tar
http://s3.amazonaws.com/tier1-p215-50/L339796_SB218_uv.dppp.MS.tar
http://s3.amazonaws.com/tier1-p215-50/L339796_SB219_uv.dppp.MS.tar
http://s3.amazonaws.com/tier1-p215-50/L339796_SB220_uv.dppp.MS.tar
http://s3.amazonaws.com/tier1-p215-50/L339796_SB221_uv.dppp.MS.tar
http://s3.amazonaws.com/tier1-p215-50/L339796_SB222_uv.dppp.MS.tar
http://s3.amazonaws.com/tier1-p215-50/L339796_SB223_uv.dppp.MS.tar
http://s3.amazonaws.com/tier1-p215-50/L339796_SB224_uv.dppp.MS.tar
http://s3.amazonaws.com/tier1-p215-50/L339796_SB225_uv.dppp.MS.tar
http://s3.amazonaws.com/tier1-p215-50/L339796_SB226_uv.dppp.MS.tar
http://s3.amazonaws.com/tier1-p215-50/L339796_SB227_uv.dppp.MS.tar
http://s3.amazonaws.com/tier1-p215-50/L339796_SB228_uv.dppp.MS.tar
http://s3.amazonaws.com/tier1-p215-50/L339796_SB229_uv.dppp.MS.tar
http://s3.amazonaws.com/tier1-p215-50/L339796_SB230_uv.dppp.MS.tar
http://s3.amazonaws.com/tier1-p215-50/L339796_SB231_uv.dppp.MS.tar
http://s3.amazonaws.com/tier1-p215-50/L339796_SB232_uv.dppp.MS.tar
http://s3.amazonaws.com/tier1-p215-50/L339796_SB233_uv.dppp.MS.tar
http://s3.amazonaws.com/tier1-p215-50/L339796_SB234_uv.dppp.MS.tar
http://s3.amazonaws.com/tier1-p215-50/L339796_SB235_uv.dppp.MS.tar
http://s3.amazonaws.com/tier1-p215-50/L339796_SB236_uv.dppp.MS.tar
http://s3.amazonaws.com/tier1-p215-50/L339796_SB237_uv.dppp.MS.tar
http://s3.amazonaws.com/tier1-p215-50/L339796_SB238_uv.dppp.MS.tar
http://s3.amazonaws.com/tier1-p215-50/L339796_SB239_uv.dppp.MS.tar
http://s3.amazonaws.com/tier1-p215-50/L339796_SB240_uv.dppp.MS.tar
http://s3.amazonaws.com/tier1-p215-50/L339796_SB241_uv.dppp.MS.tar
http://s3.amazonaws.com/tier1-p215-50/L339796_SB242_uv.dppp.MS.tar
http://s3.amazonaws.com/tier1-p215-50/L339796_SB243_uv.dppp.MS.tar
