http://s3.amazonaws.com/tier1-p215-50/L339806_SB000_uv.dppp.MS.tar
http://s3.amazonaws.com/tier1-p215-50/L339806_SB001_uv.dppp.MS.tar
http://s3.amazonaws.com/tier1-p215-50/L339806_SB002_uv.dppp.MS.tar
http://s3.amazonaws.com/tier1-p215-50/L339806_SB003_uv.dppp.MS.tar
http://s3.amazonaws.com/tier1-p215-50/L339806_SB004_uv.dppp.MS.tar
http://s3.amazonaws.com/tier1-p215-50/L339806_SB005_uv.dppp.MS.tar
http://s3.amazonaws.com/tier1-p215-50/L339806_SB006_uv.dppp.MS.tar
http://s3.amazonaws.com/tier1-p215-50/L339806_SB007_uv.dppp.MS.tar
http://s3.amazonaws.com/tier1-p215-50/L339806_SB008_uv.dppp.MS.tar
http://s3.amazonaws.com/tier1-p215-50/L339806_SB009_uv.dppp.MS.tar
http://s3.amazonaws.com/tier1-p215-50/L339806_SB010_uv.dppp.MS.tar
http://s3.amazonaws.com/tier1-p215-50/L339806_SB011_uv.dppp.MS.tar
http://s3.amazonaws.com/tier1-p215-50/L339806_SB012_uv.dppp.MS.tar
http://s3.amazonaws.com/tier1-p215-50/L339806_SB013_uv.dppp.MS.tar
http://s3.amazonaws.com/tier1-p215-50/L339806_SB014_uv.dppp.MS.tar
http://s3.amazonaws.com/tier1-p215-50/L339806_SB015_uv.dppp.MS.tar
http://s3.amazonaws.com/tier1-p215-50/L339806_SB016_uv.dppp.MS.tar
http://s3.amazonaws.com/tier1-p215-50/L339806_SB017_uv.dppp.MS.tar
http://s3.amazonaws.com/tier1-p215-50/L339806_SB018_uv.dppp.MS.tar
http://s3.amazonaws.com/tier1-p215-50/L339806_SB019_uv.dppp.MS.tar
http://s3.amazonaws.com/tier1-p215-50/L339806_SB020_uv.dppp.MS.tar
http://s3.amazonaws.com/tier1-p215-50/L339806_SB021_uv.dppp.MS.tar
http://s3.amazonaws.com/tier1-p215-50/L339806_SB022_uv.dppp.MS.tar
http://s3.amazonaws.com/tier1-p215-50/L339806_SB023_uv.dppp.MS.tar
http://s3.amazonaws.com/tier1-p215-50/L339806_SB024_uv.dppp.MS.tar
http://s3.amazonaws.com/tier1-p215-50/L339806_SB025_uv.dppp.MS.tar
http://s3.amazonaws.com/tier1-p215-50/L339806_SB026_uv.dppp.MS.tar
http://s3.amazonaws.com/tier1-p215-50/L339806_SB027_uv.dppp.MS.tar
http://s3.amazonaws.com/tier1-p215-50/L339806_SB028_uv.dppp.MS.tar
http://s3.amazonaws.com/tier1-p215-50/L339806_SB029_uv.dppp.MS.tar
http://s3.amazonaws.com/tier1-p215-50/L339806_SB030_uv.dppp.MS.tar
http://s3.amazonaws.com/tier1-p215-50/L339806_SB031_uv.dppp.MS.tar
http://s3.amazonaws.com/tier1-p215-50/L339806_SB032_uv.dppp.MS.tar
http://s3.amazonaws.com/tier1-p215-50/L339806_SB033_uv.dppp.MS.tar
http://s3.amazonaws.com/tier1-p215-50/L339806_SB034_uv.dppp.MS.tar
http://s3.amazonaws.com/tier1-p215-50/L339806_SB035_uv.dppp.MS.tar
http://s3.amazonaws.com/tier1-p215-50/L339806_SB036_uv.dppp.MS.tar
http://s3.amazonaws.com/tier1-p215-50/L339806_SB037_uv.dppp.MS.tar
http://s3.amazonaws.com/tier1-p215-50/L339806_SB038_uv.dppp.MS.tar
http://s3.amazonaws.com/tier1-p215-50/L339806_SB039_uv.dppp.MS.tar
http://s3.amazonaws.com/tier1-p215-50/L339806_SB040_uv.dppp.MS.tar
http://s3.amazonaws.com/tier1-p215-50/L339806_SB041_uv.dppp.MS.tar
http://s3.amazonaws.com/tier1-p215-50/L339806_SB042_uv.dppp.MS.tar
http://s3.amazonaws.com/tier1-p215-50/L339806_SB043_uv.dppp.MS.tar
http://s3.amazonaws.com/tier1-p215-50/L339806_SB044_uv.dppp.MS.tar
http://s3.amazonaws.com/tier1-p215-50/L339806_SB045_uv.dppp.MS.tar
http://s3.amazonaws.com/tier1-p215-50/L339806_SB046_uv.dppp.MS.tar
http://s3.amazonaws.com/tier1-p215-50/L339806_SB047_uv.dppp.MS.tar
http://s3.amazonaws.com/tier1-p215-50/L339806_SB048_uv.dppp.MS.tar
http://s3.amazonaws.com/tier1-p215-50/L339806_SB049_uv.dppp.MS.tar
http://s3.amazonaws.com/tier1-p215-50/L339806_SB050_uv.dppp.MS.tar
http://s3.amazonaws.com/tier1-p215-50/L339806_SB051_uv.dppp.MS.tar
http://s3.amazonaws.com/tier1-p215-50/L339806_SB052_uv.dppp.MS.tar
http://s3.amazonaws.com/tier1-p215-50/L339806_SB053_uv.dppp.MS.tar
http://s3.amazonaws.com/tier1-p215-50/L339806_SB054_uv.dppp.MS.tar
http://s3.amazonaws.com/tier1-p215-50/L339806_SB055_uv.dppp.MS.tar
http://s3.amazonaws.com/tier1-p215-50/L339806_SB056_uv.dppp.MS.tar
http://s3.amazonaws.com/tier1-p215-50/L339806_SB057_uv.dppp.MS.tar
http://s3.amazonaws.com/tier1-p215-50/L339806_SB058_uv.dppp.MS.tar
http://s3.amazonaws.com/tier1-p215-50/L339806_SB059_uv.dppp.MS.tar
http://s3.amazonaws.com/tier1-p215-50/L339806_SB060_uv.dppp.MS.tar
http://s3.amazonaws.com/tier1-p215-50/L339806_SB061_uv.dppp.MS.tar
http://s3.amazonaws.com/tier1-p215-50/L339806_SB062_uv.dppp.MS.tar
http://s3.amazonaws.com/tier1-p215-50/L339806_SB063_uv.dppp.MS.tar
http://s3.amazonaws.com/tier1-p215-50/L339806_SB064_uv.dppp.MS.tar
http://s3.amazonaws.com/tier1-p215-50/L339806_SB065_uv.dppp.MS.tar
http://s3.amazonaws.com/tier1-p215-50/L339806_SB066_uv.dppp.MS.tar
http://s3.amazonaws.com/tier1-p215-50/L339806_SB067_uv.dppp.MS.tar
http://s3.amazonaws.com/tier1-p215-50/L339806_SB068_uv.dppp.MS.tar
http://s3.amazonaws.com/tier1-p215-50/L339806_SB069_uv.dppp.MS.tar
http://s3.amazonaws.com/tier1-p215-50/L339806_SB070_uv.dppp.MS.tar
http://s3.amazonaws.com/tier1-p215-50/L339806_SB071_uv.dppp.MS.tar
http://s3.amazonaws.com/tier1-p215-50/L339806_SB072_uv.dppp.MS.tar
http://s3.amazonaws.com/tier1-p215-50/L339806_SB073_uv.dppp.MS.tar
http://s3.amazonaws.com/tier1-p215-50/L339806_SB074_uv.dppp.MS.tar
http://s3.amazonaws.com/tier1-p215-50/L339806_SB075_uv.dppp.MS.tar
http://s3.amazonaws.com/tier1-p215-50/L339806_SB076_uv.dppp.MS.tar
http://s3.amazonaws.com/tier1-p215-50/L339806_SB077_uv.dppp.MS.tar
http://s3.amazonaws.com/tier1-p215-50/L339806_SB078_uv.dppp.MS.tar
http://s3.amazonaws.com/tier1-p215-50/L339806_SB079_uv.dppp.MS.tar
http://s3.amazonaws.com/tier1-p215-50/L339806_SB080_uv.dppp.MS.tar
http://s3.amazonaws.com/tier1-p215-50/L339806_SB081_uv.dppp.MS.tar
http://s3.amazonaws.com/tier1-p215-50/L339806_SB082_uv.dppp.MS.tar
http://s3.amazonaws.com/tier1-p215-50/L339806_SB083_uv.dppp.MS.tar
http://s3.amazonaws.com/tier1-p215-50/L339806_SB084_uv.dppp.MS.tar
http://s3.amazonaws.com/tier1-p215-50/L339806_SB085_uv.dppp.MS.tar
http://s3.amazonaws.com/tier1-p215-50/L339806_SB086_uv.dppp.MS.tar
http://s3.amazonaws.com/tier1-p215-50/L339806_SB087_uv.dppp.MS.tar
http://s3.amazonaws.com/tier1-p215-50/L339806_SB088_uv.dppp.MS.tar
http://s3.amazonaws.com/tier1-p215-50/L339806_SB089_uv.dppp.MS.tar
http://s3.amazonaws.com/tier1-p215-50/L339806_SB090_uv.dppp.MS.tar
http://s3.amazonaws.com/tier1-p215-50/L339806_SB091_uv.dppp.MS.tar
http://s3.amazonaws.com/tier1-p215-50/L339806_SB092_uv.dppp.MS.tar
http://s3.amazonaws.com/tier1-p215-50/L339806_SB093_uv.dppp.MS.tar
http://s3.amazonaws.com/tier1-p215-50/L339806_SB094_uv.dppp.MS.tar
http://s3.amazonaws.com/tier1-p215-50/L339806_SB095_uv.dppp.MS.tar
http://s3.amazonaws.com/tier1-p215-50/L339806_SB096_uv.dppp.MS.tar
http://s3.amazonaws.com/tier1-p215-50/L339806_SB097_uv.dppp.MS.tar
http://s3.amazonaws.com/tier1-p215-50/L339806_SB098_uv.dppp.MS.tar
http://s3.amazonaws.com/tier1-p215-50/L339806_SB099_uv.dppp.MS.tar
http://s3.amazonaws.com/tier1-p215-50/L339806_SB100_uv.dppp.MS.tar
http://s3.amazonaws.com/tier1-p215-50/L339806_SB101_uv.dppp.MS.tar
http://s3.amazonaws.com/tier1-p215-50/L339806_SB102_uv.dppp.MS.tar
http://s3.amazonaws.com/tier1-p215-50/L339806_SB103_uv.dppp.MS.tar
http://s3.amazonaws.com/tier1-p215-50/L339806_SB104_uv.dppp.MS.tar
http://s3.amazonaws.com/tier1-p215-50/L339806_SB105_uv.dppp.MS.tar
http://s3.amazonaws.com/tier1-p215-50/L339806_SB106_uv.dppp.MS.tar
http://s3.amazonaws.com/tier1-p215-50/L339806_SB107_uv.dppp.MS.tar
http://s3.amazonaws.com/tier1-p215-50/L339806_SB108_uv.dppp.MS.tar
http://s3.amazonaws.com/tier1-p215-50/L339806_SB109_uv.dppp.MS.tar
http://s3.amazonaws.com/tier1-p215-50/L339806_SB110_uv.dppp.MS.tar
http://s3.amazonaws.com/tier1-p215-50/L339806_SB111_uv.dppp.MS.tar
http://s3.amazonaws.com/tier1-p215-50/L339806_SB112_uv.dppp.MS.tar
http://s3.amazonaws.com/tier1-p215-50/L339806_SB113_uv.dppp.MS.tar
http://s3.amazonaws.com/tier1-p215-50/L339806_SB114_uv.dppp.MS.tar
http://s3.amazonaws.com/tier1-p215-50/L339806_SB115_uv.dppp.MS.tar
http://s3.amazonaws.com/tier1-p215-50/L339806_SB116_uv.dppp.MS.tar
http://s3.amazonaws.com/tier1-p215-50/L339806_SB117_uv.dppp.MS.tar
http://s3.amazonaws.com/tier1-p215-50/L339806_SB118_uv.dppp.MS.tar
http://s3.amazonaws.com/tier1-p215-50/L339806_SB119_uv.dppp.MS.tar
http://s3.amazonaws.com/tier1-p215-50/L339806_SB120_uv.dppp.MS.tar
http://s3.amazonaws.com/tier1-p215-50/L339806_SB121_uv.dppp.MS.tar
http://s3.amazonaws.com/tier1-p215-50/L339806_SB122_uv.dppp.MS.tar
http://s3.amazonaws.com/tier1-p215-50/L339806_SB123_uv.dppp.MS.tar
http://s3.amazonaws.com/tier1-p215-50/L339806_SB124_uv.dppp.MS.tar
http://s3.amazonaws.com/tier1-p215-50/L339806_SB125_uv.dppp.MS.tar
http://s3.amazonaws.com/tier1-p215-50/L339806_SB126_uv.dppp.MS.tar
http://s3.amazonaws.com/tier1-p215-50/L339806_SB127_uv.dppp.MS.tar
http://s3.amazonaws.com/tier1-p215-50/L339806_SB128_uv.dppp.MS.tar
http://s3.amazonaws.com/tier1-p215-50/L339806_SB129_uv.dppp.MS.tar
http://s3.amazonaws.com/tier1-p215-50/L339806_SB130_uv.dppp.MS.tar
http://s3.amazonaws.com/tier1-p215-50/L339806_SB131_uv.dppp.MS.tar
http://s3.amazonaws.com/tier1-p215-50/L339806_SB132_uv.dppp.MS.tar
http://s3.amazonaws.com/tier1-p215-50/L339806_SB133_uv.dppp.MS.tar
http://s3.amazonaws.com/tier1-p215-50/L339806_SB134_uv.dppp.MS.tar
http://s3.amazonaws.com/tier1-p215-50/L339806_SB135_uv.dppp.MS.tar
http://s3.amazonaws.com/tier1-p215-50/L339806_SB136_uv.dppp.MS.tar
http://s3.amazonaws.com/tier1-p215-50/L339806_SB137_uv.dppp.MS.tar
http://s3.amazonaws.com/tier1-p215-50/L339806_SB138_uv.dppp.MS.tar
http://s3.amazonaws.com/tier1-p215-50/L339806_SB139_uv.dppp.MS.tar
http://s3.amazonaws.com/tier1-p215-50/L339806_SB140_uv.dppp.MS.tar
http://s3.amazonaws.com/tier1-p215-50/L339806_SB141_uv.dppp.MS.tar
http://s3.amazonaws.com/tier1-p215-50/L339806_SB142_uv.dppp.MS.tar
http://s3.amazonaws.com/tier1-p215-50/L339806_SB143_uv.dppp.MS.tar
http://s3.amazonaws.com/tier1-p215-50/L339806_SB144_uv.dppp.MS.tar
http://s3.amazonaws.com/tier1-p215-50/L339806_SB145_uv.dppp.MS.tar
http://s3.amazonaws.com/tier1-p215-50/L339806_SB146_uv.dppp.MS.tar
http://s3.amazonaws.com/tier1-p215-50/L339806_SB147_uv.dppp.MS.tar
http://s3.amazonaws.com/tier1-p215-50/L339806_SB148_uv.dppp.MS.tar
http://s3.amazonaws.com/tier1-p215-50/L339806_SB149_uv.dppp.MS.tar
http://s3.amazonaws.com/tier1-p215-50/L339806_SB150_uv.dppp.MS.tar
http://s3.amazonaws.com/tier1-p215-50/L339806_SB151_uv.dppp.MS.tar
http://s3.amazonaws.com/tier1-p215-50/L339806_SB152_uv.dppp.MS.tar
http://s3.amazonaws.com/tier1-p215-50/L339806_SB153_uv.dppp.MS.tar
http://s3.amazonaws.com/tier1-p215-50/L339806_SB154_uv.dppp.MS.tar
http://s3.amazonaws.com/tier1-p215-50/L339806_SB155_uv.dppp.MS.tar
http://s3.amazonaws.com/tier1-p215-50/L339806_SB156_uv.dppp.MS.tar
http://s3.amazonaws.com/tier1-p215-50/L339806_SB157_uv.dppp.MS.tar
http://s3.amazonaws.com/tier1-p215-50/L339806_SB158_uv.dppp.MS.tar
http://s3.amazonaws.com/tier1-p215-50/L339806_SB159_uv.dppp.MS.tar
http://s3.amazonaws.com/tier1-p215-50/L339806_SB160_uv.dppp.MS.tar
http://s3.amazonaws.com/tier1-p215-50/L339806_SB161_uv.dppp.MS.tar
http://s3.amazonaws.com/tier1-p215-50/L339806_SB162_uv.dppp.MS.tar
http://s3.amazonaws.com/tier1-p215-50/L339806_SB163_uv.dppp.MS.tar
http://s3.amazonaws.com/tier1-p215-50/L339806_SB164_uv.dppp.MS.tar
http://s3.amazonaws.com/tier1-p215-50/L339806_SB165_uv.dppp.MS.tar
http://s3.amazonaws.com/tier1-p215-50/L339806_SB166_uv.dppp.MS.tar
http://s3.amazonaws.com/tier1-p215-50/L339806_SB167_uv.dppp.MS.tar
http://s3.amazonaws.com/tier1-p215-50/L339806_SB168_uv.dppp.MS.tar
http://s3.amazonaws.com/tier1-p215-50/L339806_SB169_uv.dppp.MS.tar
http://s3.amazonaws.com/tier1-p215-50/L339806_SB170_uv.dppp.MS.tar
http://s3.amazonaws.com/tier1-p215-50/L339806_SB171_uv.dppp.MS.tar
http://s3.amazonaws.com/tier1-p215-50/L339806_SB172_uv.dppp.MS.tar
http://s3.amazonaws.com/tier1-p215-50/L339806_SB173_uv.dppp.MS.tar
http://s3.amazonaws.com/tier1-p215-50/L339806_SB174_uv.dppp.MS.tar
http://s3.amazonaws.com/tier1-p215-50/L339806_SB175_uv.dppp.MS.tar
http://s3.amazonaws.com/tier1-p215-50/L339806_SB176_uv.dppp.MS.tar
http://s3.amazonaws.com/tier1-p215-50/L339806_SB177_uv.dppp.MS.tar
http://s3.amazonaws.com/tier1-p215-50/L339806_SB178_uv.dppp.MS.tar
http://s3.amazonaws.com/tier1-p215-50/L339806_SB179_uv.dppp.MS.tar
http://s3.amazonaws.com/tier1-p215-50/L339806_SB180_uv.dppp.MS.tar
http://s3.amazonaws.com/tier1-p215-50/L339806_SB181_uv.dppp.MS.tar
http://s3.amazonaws.com/tier1-p215-50/L339806_SB182_uv.dppp.MS.tar
http://s3.amazonaws.com/tier1-p215-50/L339806_SB183_uv.dppp.MS.tar
http://s3.amazonaws.com/tier1-p215-50/L339806_SB184_uv.dppp.MS.tar
http://s3.amazonaws.com/tier1-p215-50/L339806_SB185_uv.dppp.MS.tar
http://s3.amazonaws.com/tier1-p215-50/L339806_SB186_uv.dppp.MS.tar
http://s3.amazonaws.com/tier1-p215-50/L339806_SB187_uv.dppp.MS.tar
http://s3.amazonaws.com/tier1-p215-50/L339806_SB188_uv.dppp.MS.tar
http://s3.amazonaws.com/tier1-p215-50/L339806_SB189_uv.dppp.MS.tar
http://s3.amazonaws.com/tier1-p215-50/L339806_SB190_uv.dppp.MS.tar
http://s3.amazonaws.com/tier1-p215-50/L339806_SB191_uv.dppp.MS.tar
http://s3.amazonaws.com/tier1-p215-50/L339806_SB192_uv.dppp.MS.tar
http://s3.amazonaws.com/tier1-p215-50/L339806_SB193_uv.dppp.MS.tar
http://s3.amazonaws.com/tier1-p215-50/L339806_SB194_uv.dppp.MS.tar
http://s3.amazonaws.com/tier1-p215-50/L339806_SB195_uv.dppp.MS.tar
http://s3.amazonaws.com/tier1-p215-50/L339806_SB196_uv.dppp.MS.tar
http://s3.amazonaws.com/tier1-p215-50/L339806_SB197_uv.dppp.MS.tar
http://s3.amazonaws.com/tier1-p215-50/L339806_SB198_uv.dppp.MS.tar
http://s3.amazonaws.com/tier1-p215-50/L339806_SB199_uv.dppp.MS.tar
http://s3.amazonaws.com/tier1-p215-50/L339806_SB200_uv.dppp.MS.tar
http://s3.amazonaws.com/tier1-p215-50/L339806_SB201_uv.dppp.MS.tar
http://s3.amazonaws.com/tier1-p215-50/L339806_SB202_uv.dppp.MS.tar
http://s3.amazonaws.com/tier1-p215-50/L339806_SB203_uv.dppp.MS.tar
http://s3.amazonaws.com/tier1-p215-50/L339806_SB204_uv.dppp.MS.tar
http://s3.amazonaws.com/tier1-p215-50/L339806_SB205_uv.dppp.MS.tar
http://s3.amazonaws.com/tier1-p215-50/L339806_SB206_uv.dppp.MS.tar
http://s3.amazonaws.com/tier1-p215-50/L339806_SB207_uv.dppp.MS.tar
http://s3.amazonaws.com/tier1-p215-50/L339806_SB208_uv.dppp.MS.tar
http://s3.amazonaws.com/tier1-p215-50/L339806_SB209_uv.dppp.MS.tar
http://s3.amazonaws.com/tier1-p215-50/L339806_SB210_uv.dppp.MS.tar
http://s3.amazonaws.com/tier1-p215-50/L339806_SB211_uv.dppp.MS.tar
http://s3.amazonaws.com/tier1-p215-50/L339806_SB212_uv.dppp.MS.tar
http://s3.amazonaws.com/tier1-p215-50/L339806_SB213_uv.dppp.MS.tar
http://s3.amazonaws.com/tier1-p215-50/L339806_SB214_uv.dppp.MS.tar
http://s3.amazonaws.com/tier1-p215-50/L339806_SB215_uv.dppp.MS.tar
http://s3.amazonaws.com/tier1-p215-50/L339806_SB216_uv.dppp.MS.tar
http://s3.amazonaws.com/tier1-p215-50/L339806_SB217_uv.dppp.MS.tar
http://s3.amazonaws.com/tier1-p215-50/L339806_SB218_uv.dppp.MS.tar
http://s3.amazonaws.com/tier1-p215-50/L339806_SB219_uv.dppp.MS.tar
http://s3.amazonaws.com/tier1-p215-50/L339806_SB220_uv.dppp.MS.tar
http://s3.amazonaws.com/tier1-p215-50/L339806_SB221_uv.dppp.MS.tar
http://s3.amazonaws.com/tier1-p215-50/L339806_SB222_uv.dppp.MS.tar
http://s3.amazonaws.com/tier1-p215-50/L339806_SB223_uv.dppp.MS.tar
http://s3.amazonaws.com/tier1-p215-50/L339806_SB224_uv.dppp.MS.tar
http://s3.amazonaws.com/tier1-p215-50/L339806_SB225_uv.dppp.MS.tar
http://s3.amazonaws.com/tier1-p215-50/L339806_SB226_uv.dppp.MS.tar
http://s3.amazonaws.com/tier1-p215-50/L339806_SB227_uv.dppp.MS.tar
http://s3.amazonaws.com/tier1-p215-50/L339806_SB228_uv.dppp.MS.tar
http://s3.amazonaws.com/tier1-p215-50/L339806_SB229_uv.dppp.MS.tar
http://s3.amazonaws.com/tier1-p215-50/L339806_SB230_uv.dppp.MS.tar
http://s3.amazonaws.com/tier1-p215-50/L339806_SB231_uv.dppp.MS.tar
http://s3.amazonaws.com/tier1-p215-50/L339806_SB232_uv.dppp.MS.tar
http://s3.amazonaws.com/tier1-p215-50/L339806_SB233_uv.dppp.MS.tar
http://s3.amazonaws.com/tier1-p215-50/L339806_SB234_uv.dppp.MS.tar
http://s3.amazonaws.com/tier1-p215-50/L339806_SB235_uv.dppp.MS.tar
http://s3.amazonaws.com/tier1-p215-50/L339806_SB236_uv.dppp.MS.tar
http://s3.amazonaws.com/tier1-p215-50/L339806_SB237_uv.dppp.MS.tar
http://s3.amazonaws.com/tier1-p215-50/L339806_SB238_uv.dppp.MS.tar
http://s3.amazonaws.com/tier1-p215-50/L339806_SB239_uv.dppp.MS.tar
http://s3.amazonaws.com/tier1-p215-50/L339806_SB240_uv.dppp.MS.tar
http://s3.amazonaws.com/tier1-p215-50/L339806_SB241_uv.dppp.MS.tar
http://s3.amazonaws.com/tier1-p215-50/L339806_SB242_uv.dppp.MS.tar
http://s3.amazonaws.com/tier1-p215-50/L339806_SB243_uv.dppp.MS.tar
